%YAML 1.1
%TAG !u! tag:unity3d.com,2011:
--- !u!114 &11400000
MonoBehaviour:
  m_ObjectHideFlags: 0
  m_CorrespondingSourceObject: {fileID: 0}
  m_PrefabInstance: {fileID: 0}
  m_PrefabAsset: {fileID: 0}
  m_GameObject: {fileID: 0}
  m_Enabled: 1
  m_EditorHideFlags: 0
  m_Script: {fileID: 11500000, guid: 0ff23ae287f9044e28abc573be63b784, type: 3}
  m_Name: 1703877B-1178-4069-AA02-B9F0E1787975
  m_EditorClassIdentifier: 
  objectName: Steps
  id: 1718617278
  guid: 1703877B-1178-4069-AA02-B9F0E1787975
