%YAML 1.1
%TAG !u! tag:unity3d.com,2011:
--- !u!114 &11400000
MonoBehaviour:
  m_ObjectHideFlags: 0
  m_CorrespondingSourceObject: {fileID: 0}
  m_PrefabInstance: {fileID: 0}
  m_PrefabAsset: {fileID: 0}
  m_GameObject: {fileID: 0}
  m_Enabled: 1
  m_EditorHideFlags: 0
  m_Script: {fileID: 11500000, guid: d5c22572d73854a16867112b5eae2985, type: 3}
  m_Name: 6283A21E-3CF6-42EE-B38F-FBBAC75075EB
  m_EditorClassIdentifier: 
  objectName: Play_police
  id: 1656134708
  guid: 6283A21E-3CF6-42EE-B38F-FBBAC75075EB
